[npc]
NULL
down
0
13
27
NULL
0
-1
0,1
false
false
false
[/npc]
[npc]
Hiker Bailey
left
365
16
19
Geodude,13,Geodude,13,Geodude,13,Geodude,13,Geodude,13
5
-1
2
false
false
false
[/npc]
[warp]
18
5
34
33
-50
-42
0
[/warp]
