[npc]
Seasond_Sailor
up
395
16
19
NULL
0
-1
0
false
false
false
[/npc]
[npc]
NULL
down
0
18
13
NULL
0
-1
1
false
false
false
[/npc]
[warp]
17
5
15
16
-49
49
0
[/warp]
[warp]
11
11
22
31
-40
-20
0
[/warp]
[warp]
25
8
22
31
-40
-19
0
[/warp]
