[npc]
Advisor
down
344
6
15
NULL
0
-1
1,2,3
false
false
false
[/npc]
[npc]
Beauty Samantha
left
326
15
80
Meowth,16,Meowth,16
2
-1
4
false
false
false
[/npc]
[npc]
Beauty Victoria
left
349
21
75
Sentret,9,Sentret,13,Sentret,17
3
-1
5,6
false
false
false
[/npc]
[npc]
Lass Carrie
down
347
34
82
Snubbull,18
1
-1
7
false
false
false
[/npc]
[npc]
Lass Bridget
right
382
36
73
Jigglypuff,15,Jigglypuff,15,Jigglypuff,15
3
-1
8,9
false
false
false
[/npc]
[npc]
Whitney
down
286
23
68
Blissey,26,Miltank,26,Ursaring,26,Granbull,26,Snorlax,26,Clefable,26
6
10
10,11,12,13
false
false
false
[/npc]
[warp]
16
85
25
9
-5
0
0
[/warp]
[warp]
13
78
16
37
-31
-35
0
[/warp]
[warp]
13
79
16
37
-31
-35
0
[/warp]
[warp]
15
37
12
78
-31
-35
0
[/warp]
[warp]
22
84
19
42
-31
-35
0
[/warp]
[warp]
20
42
23
84
-31
-35
0
[/warp]
[warp]
35
74
32
33
-31
-35
0
[/warp]
[warp]
35
75
32
33
-31
-35
0
[/warp]
[warp]
33
33
36
75
-31
-35
0
[/warp]
[npc]
Beauty Samantha
left
326
15
40
NULL
0
-1
0
false
false
false
[/npc]
[npc]
Beauty Samantha
right
349
21
35
NULL
0
-1
0
false
false
false
[/npc]
[npc]
Beauty Samantha
down
347
34
42
NULL
0
-1
0
false
false
false
[/npc]
[npc]
Beauty Samantha
right
382
36
33
NULL
0
-1
0
false
false
false
[/npc]
[npc]
Beauty Samantha
down
286
23
28
NULL
0
-1
0
false
false
false
[/npc]




