[npc]
NPC
down
275
3
6
NULL
0
-1
0,1,2
false
false
false
[/npc]
[npc]
NPC
up
340
1
4
NULL
0
-1
3,4
false
false
false
[/npc]
[npc]
NPC
left
267
6
7
NULL
0
-1
5,6
false
false
false
[/npc]
[warp]
3
10
14
40
-8
-2
0
[/warp]
