[npc]
Battlefrontier - battlepyramide lady - any lvl
down
335
8
11
NULL
0
-1
1
false
false
false
[/npc]
[npc]
NULL
down
0
14
11
NULL
0
-1
2
false
true
false
[/npc]
[warp]
8
17
121
14
29
26
0
[/warp]