[warp]
40
55
23
40
41
29
0
[/warp]
[warp]
55
55
41
78
-41
-39
0
[/warp]
[warp]
41
77
55
54
-41
-39
0
[/warp]
[warp]
61
23
44
99
-41
-39
0
[/warp]
[warp]
44
98
61
24
-41
-39
0
[/warp]
[warp]
50
108
64
135
-41
-39
0
[/warp]
[warp]
64
136
50
107
-41
-39
0
[/warp]
[warp]
38
154
61
179
-41
-39
0
[/warp]
[warp]
61
178
38
153
-41
-39
0
[/warp]
[warp]
59
184
51
230
-41
-39
0
[/warp]
[warp]
51
231
59
185
-41
-39
0
[/warp]
[warp]
45
197
69
252
-41
-39
0
[/warp]
[warp]
69
251
45
196
-41
-39
0
[/warp]
[warp]
47
264
54
288
-41
-39
0
[/warp]
[warp]
54
287
47
263
-41
-39
0
[/warp]
[warp]
54
308
50
43
-41
-39
0
[/warp]
[warp]
50
42
54
307
-41
-39
0
[/warp]
[npc]
Maxie
down
140
39
261
Mightyena,80,Camerupt,80,Crobat,80
3
-1
0
false
false
false
[/npc]