[warp]
23
8
18
23
48
-48
0
[/warp]
[warp]
23
9
18
23
48
-48
0
[/warp]
[warp]
23
10
18
23
48
-48
0
[/warp]
[warp]
23
11
18
23
48
-48
0
[/warp]
[warp]
23
12
18
23
48
-48
0
[/warp]
[warp]
23
13
18
23
48
-48
0
[/warp]
[warp]
23
14
18
23
48
-48
0
[/warp]
[warp]
23
15
18
23
48
-48
0
[/warp]