[warp]
29
57
20
41
35
23
0
[/warp]
[warp]
54
21
17
26
35
23
0
[/warp]
[warp]
23
28
22
23
-44
2
0
[/warp]
[warp]
35
48
36
40
-44
2
0
[/warp]
[warp]
55
54
56
46
-44
2
0
[/warp]