[npc]
Cooltrainer Fran
left
122
5
13
Seadra,37
1
-1
0,1
false
false
false
[/npc]
[npc]
Cooltrainer Cody
right
265
5
3
Horsea,34,Seadra,36
2
-1
2
false
false
false
[/npc]
[warp]
2
9
3
12
-46
-46
0
[/warp]
[warp]
3
7
4
10
-46
-46
0
[/warp]
[warp]
8
11
9
14
-46
-46
0
[/warp]
[warp]
9
9
9
11
-46
-46
0
[/warp]
[warp]
9
5
9
10
-46
-46
0
[/warp]
