[npc]
Advisor
down
344
23
30
NULL
0
-1
1,2,3,4
false
false
false
[/npc]
[npc]
Psychic Cameron
down
333
34
29
Slowpoke,33,Slowpoke,33,Slowbro,33
3
-1
5,6
false
false
false
[/npc]
[npc]
Channeler Tasha
down
260
14
29
Gastly,33,Gastly,33,Haunter,33
3
-1
7
false
false
false
[/npc]
[npc]
Psychic Johan
down
333
34
15
Kadabra,31,Mr.Mime,31,Slowpoke,31,Kadabra,31
4
-1
8
false
false
false
[/npc]
[npc]
Psychic Preston
down
333
14
15
Slowbro,38
1
-1
9,10
false
false
false
[/npc]
[npc]
Chaneller Amanda
down
260
24
15
Gastly,34,Haunter,34
2
-1
11
false
false
false
[/npc]
[npc]
Psychic Tyron
down
333
34
22
Mr.Mime,34,Kadabra,34
2
-1
12,13
false
false
false
[/npc]
[npc]
Channeler Stacy
down
260
14
22
Haunter,38
1
-1
14,15
false
false
false
[/npc]
[npc]
Sabrina
down
299
24
22
Alakazam,41,Mr.Mime,41,Hypno,41,Espeon,41,Exeggutor,41,Slowking,41
6
5
16,17,18,19
false
false
false
[/npc]
[warp]
24
35
46
13
6
-2
0
[/warp]
[warp]
27
30
36
32
-47
-19
0
[/warp]
[warp]
37
32
26
30
-47
-19
0
[/warp]
[warp]
37
30
36
23
-47
-19
0
[/warp]
[warp]
37
23
36
30
-47
-19
0
[/warp]
[warp]
31
30
36
16
-47
-19
0
[/warp]
[warp]
37
16
32
30
-47
-19
0
[/warp]
[warp]
31
32
16
32
-47
-19
0
[/warp]
[warp]
17
32
32
32
-47
-19
0
[/warp]
[warp]
37
25
12
23
-47
-19
0
[/warp]
[warp]
11
23
36
25
-47
-19
0
[/warp]
[warp]
31
23
32
16
-47
-19
0
[/warp]
[warp]
31
16
32
23
-47
-19
0
[/warp]
[warp]
31
25
23
16
-47
-19
0
[/warp]
[warp]
22
16
32
25
-47
-19
0
[/warp]
[warp]
37
18
12
30
-47
-19
0
[/warp]
[warp]
11
30
36
18
-47
-19
0
[/warp]
[warp]
31
18
12
16
-47
-19
0
[/warp]
[warp]
11
16
32
18
-47
-19
0
[/warp]
[warp]
26
16
16
16
-47
-19
0
[/warp]
[warp]
17
16
25
16
-47
-19
0
[/warp]
[warp]
26
18
12
32
-47
-19
0
[/warp]
[warp]
11
32
25
18
-47
-19
0
[/warp]
[warp]
22
18
16
23
-47
-19
0
[/warp]
[warp]
17
23
23
18
-47
-19
0
[/warp]
[warp]
11
18
27
25
-47
-19
0
[/warp]
[warp]
27
26
12
18
-47
-19
0
[/warp]
[warp]
17
18
12
25
-47
-19
0
[/warp]
[warp]
11
25
16
18
-47
-19
0
[/warp]
[warp]
17
32
16
25
-47
-19
0
[/warp]
[warp]
17
25
16
32
-47
-19
0
[/warp]
[warp]
21
26
24
30
-47
-19
0
[/warp]
