[npc]
PN Staff
down
122
3
8
NULL
0
-1
0
false
false
false
[/npc]
[npc]
PN Staff
left
279
6
10
NULL
0
-1
1
false
false
false
[/npc]
[warp]
11
1
12
2
-50
-27
0
[/warp]
[warp]
15
1
12
2
-50
-25
0
[/warp]
[warp]
2
1
4
2
-50
-27
0
[/warp]
[warp]
6
1
3
2
-50
-25
0
[/warp]