[warp]
17
2
19
5
-50
-16
0
[/warp]
[warp]
22
2
29
49
-50
-18
0
[/warp]
[warp]
30
49
21
2
-50
-18
0
[/warp]
[warp]
21
28
25
62
-50
-18
0
[/warp]
[warp]
26
62
20
28
-50
-18
0
[/warp]
[warp]
23
49
71
2
-50
-18
0
[/warp]
[warp]
72
2
22
49
-50
-18
0
[/warp]
[warp]
68
18
99
56
-50
-18
0
[/warp]
[warp]
100
56
69
18
-50
-18
0
[/warp]
[warp]
99
46
90
64
-50
-18
0
[/warp]
[warp]
89
64
100
46
-50
-18
0
[/warp]
[warp]
93
46
50
93
-50
-18
0
[/warp]
[warp]
50
92
94
46
-50
-18
0
[/warp]
[warp]
109
45
129
99
-50
-18
0
[/warp]
[warp]
130
99
109
46
-50
-18
0
[/warp]
[warp]
130
95
106
118
-50
-18
0
[/warp]
[warp]
105
118
129
95
-50
-18
0
[/warp]
[warp]
17
52
14
54
-50
-18
0
[/warp]
[warp]
17
53
2
51
-50
-18
0
[/warp]
[warp]
13
52
14
54
-50
-18
0
[/warp]
[warp]
13
54
14
54
-50
-18
0
[/warp]
[warp]
12
55
2
51
-50
-18
0
[/warp]
12
53
2
51
-50
-18
0
[/warp]
12
51
2
51
-50
-18
0
[/warp]
[/warp]
10
51
2
51
-50
-18
0
[/warp]
[/warp]
8
51
2
51
-50
-18
0
[/warp]
[/warp]
4
51
2
51
-50
-18
0
[/warp]
[/warp]
4
53
8
53
-50
-18
0
[/warp]
[/warp]
8
54
8
53
-50
-18
0
[/warp]
[/warp]
8
57
8
53
-50
-18
0
[/warp]
[/warp]
5
56
9
58
-50
-18
0
[/warp]
[/warp]
9
56
9
58
-50
-18
0
[/warp]
[/warp]
5
56
9
58
-50
-18
0
[/warp]
[/warp]
4
57
8
53
-50
-18
0
[/warp]
[/warp]
4
58
8
53
-50
-18
0
[/warp]
[/warp]
10
57
2
51
-50
-18
0
[/warp]
[/warp]
11
56
15
60
-50
-18
0
[/warp]
[/warp]
4
61
2
61
-50
-18
0
[/warp]
[/warp]
6
66
6
62
-50
-18
0
[/warp]
[/warp]
6
64
6
62
-50
-18
0
[/warp]
[/warp]
8
61
2
61
-50
-18
0
[/warp]
[/warp]
8
66
2
61
-50
-18
0
[/warp]
[/warp]
9
64
9
66
-50
-18
0
[/warp]
[/warp]
13
64
9
66
-50
-18
0
[/warp]
[/warp]
13
65
8
65
-50
-18
0
[/warp]
[/warp]
10
67
15
67
-50
-18
0
[/warp]
[/warp]
10
61
14
57
-50
-18
0
[/warp]
[/warp]
11
60
11
62
-50
-18
0
[/warp]
[/warp]
10
59
14
57
-50
-18
0
[/warp]
[/warp]
12
59
14
57
-50
-18
0
[/warp]
[/warp]
14
59
14
57
-50
-18
0
[/warp]
[/warp]
11
58
15
60
-50
-18
0
[/warp]
[/warp]
13
58
15
60
-50
-18
0
[/warp]
[/warp]
15
58
15
60
-50
-18
0
[/warp]
[/warp]
14
60
11
62
-50
-18
0
[/warp]
[/warp]
14
61
14
57
-50
-18
0
[/warp]
[/warp]
16
60
16
55
-50
-18
0
[/warp]
[/warp]
16
58
16
55
-50
-18
0
[/warp]
[/warp]
16
57
16
55
-50
-18
0
[/warp]
[/warp]
60
9
62
9
-50
-18
0
[/warp]
[/warp]
62
11
62
9
-50
-18
0
[/warp]
[/warp]
58
9
56
9
-50
-18
0
[/warp]
[/warp]
56
11
60
11
-50
-18
0
[/warp]
[/warp]
63
10
63
14
-50
-18
0
[/warp]
[/warp]
64
14
64
13
-50
-18
0
[/warp]
[/warp]
60
13
64
13
-50
-18
0
[/warp]
[/warp]
60
15
64
13
-50
-18
0
[/warp]
[/warp]
60
17
64
13
-50
-18
0
[/warp]
[/warp]
61
14
63
14
-50
-18
0
[/warp]
[/warp]
59
14
63
14
-50
-18
0
[/warp]
[/warp]
58
15
64
13
-50
-18
0
[/warp]
[/warp]
57
16
61
16
-50
-18
0
[/warp]
[/warp]
56
17
64
13
-50
-18
0
[/warp]
[/warp]
58
18
64
13
-50
-18
0
[/warp]










