[npc]
Member
right
347
5
6
NULL
0
-1
0,1
false
false
false
[/npc]
[npc]
Member
left
274
8
6
NULL
0
-1
2
false
false
false
[/npc]
[npc]
Member
down
343
7
5
NULL
0
-1
3
false
false
false
[/npc]
[npc]
Chairman
down
280
6
5
NULL
0
-1
4,5,6
false
false
false
[/npc]
[warp]
6
11
12
18
6
0
0
[/warp]