[npc]
Seasond_Sailor
right
142
85
18
NULL
0
-1
0
false
false
false
[/npc]
[npc]
Registeel
down
0
90
198
Registeel,50
1
-1
0
false
false
false
[/npc]
[npc]
Registeel
down
0
91
198
Registeel,50
1
-1
0
false
false
false
[/npc]
[warp]
104
3
99
76
1
-46
0
[/warp]
[warp]
99
77
104
4
1
-46
0
[/warp]
[warp]
128
96
143
121
1
-46
0
[/warp]
[warp]
128
97
143
121
1
-46
0
[/warp]
[warp]
128
98
143
121
1
-46
0
[/warp]
[warp]
142
121
126
97
1
-46
0
[/warp]
[warp]
142
120
126
97
1
-46
0
[/warp]
[warp]
111
96
76
121
1
-46
0
[/warp]
[warp]
111
97
76
121
1
-46
0
[/warp]
[warp]
111
98
76
121
1
-46
0
[/warp]
[warp]
77
121
113
97
1
-46
0
[/warp]
[warp]
77
120
113
97
1
-46
0
[/warp]
[warp]
50
173
48
193
1
-46
0
[/warp]
[warp]
49
193
51
173
1
-46
0
[/warp]
[warp]
48
207
85
197
1
-46
0
[/warp]
[warp]
84
197
47
207
1
-46
0
[/warp]
[warp]
31
193
91
6
1
-46
0
[/warp]
[warp]
92
6
32
193
1
-46
0
[/warp]