[warp]
25
31
24
6
12
17
0
[/warp]
[warp]
26
31
24
7
12
17
0
[/warp]
[warp]
42
16
8
26
16
1
0
[/warp]
[warp]
42
17
8
27
16
1
0
[/warp]
[warp]
25
6
30
34
16
2
0
[/warp]
[warp]
26
6
31
34
16
2
0
[/warp]
[warp]
8
18
40
26
16
3
0
[/warp]
[warp]
8
19
40
27
16
3
0
[/warp]