[warp]
62
11
15
16
9
49
0
[/warp]
[warp]
67
17
10
38
-48
47
0
[/warp]
[warp]
63
3
25
28
-48
-41
0
[/warp]
[warp]
68
8
14
19
-48
-42
0
[/warp]
[warp]
76
14
15
20
-48
-43
0
[/warp]