[npc]
Swimmer Douglas
left
281
46
48
Tentacool,24,Tentacool,24
2
-1
0
false
false
false
[/npc]
Swimmer Kyla
right
282
69
12
Wailmer,26
1
-1
0
false
false
false
[/npc]
[npc]
Fisherman Ned
right
368
65
13
Tentacool,11
1
-1
0
false
false
false
[/npc]
[npc]
Fisherman Elliot
right
368
52
14
Magikarp,10,Tentacool,7,Magikarp,10
3
-1
0
false
false
false
[/npc]
[warp]
49
16
47
24
41
40
0
[/warp]
