[npc]
NULL
down
0
7
72
NULL
0
-1
0
false
false
false
[/npc]
[npc]
NULL
down
0
14
11
NULL
0
-1
1
false
false
false
[/npc]
[warp]
18
44
18
38
3
-2
0
[/warp]
[warp]
19
44
19
38
3
-2
0
[/warp]
[warp]
18
39
18
46
3
-2
0
[/warp]
[warp]
19
39
19
46
3
-2
0
[/warp]
[warp]
5
49
29
62
-44
-14
0
[/warp]
[warp]
6
49
29
62
-44
-14
0
[/warp]
[warp]
5
12
5
10
-44
-14
0
[/warp]
[warp]
6
12
5
10
-44
-14
0
[/warp]
[warp]
17
21
5
8
-46
-16
0
[/warp]
[warp]
17
10
4
6
-45
-25
3
[/warp]
[hmobject]
CUT_TREE
16
68
[/hmobject]
[hmobject]
CUT_TREE
15
61
[/hmobject]
[hmobject]
CUT_TREE
18
25
[/hmobject]
[hmobject]
CUT_TREE
11
12
[/hmobject]