[warp]
9
14
15
16
12
49
0
[/warp]
[warp]
3
12
16
20
-42
-33
0
[/warp]
[warp]
4
21
14
21
-42
-34
0
[/warp]
[warp]
13
23
17
22
-42
-35
0
[/warp]
[warp]
19
21
14
21
-42
-36
0
[/warp]
[warp]
17
11
16
21
-42
-37
0
[/warp]
