[warp]
25
6
9
60
37
-45
0
[/warp]
[warp]
26
6
10
60
37
-45
0
[/warp]
[warp]
27
6
11
60
37
-45
0
[/warp]

[warp]
22
136
22
136
38
-44
0
[/warp]
[warp]
23
136
23
136
38
-44
0
[/warp]
[warp]
24
136
24
136
38
-44
0
[/warp]
