[warp]
18
13
21
22
41
36
0
[/warp]
[warp]
7
10
7
19
41
36
0
[/warp]
[warp]
5
5
4
13
41
36
0
[/warp]
[warp]
3
21
5
1
41
35
0
[/warp]
[warp]
20
35
26
27
41
35
0
[/warp]
[warp]
17
2
5
14
41
38
0
[/warp]