[warp]
40
24
40
25
41
41
0
[/warp]
[warp]
39
32
39
33
41
41
0
[/warp]
[warp]
19
16
19
17
41
41
0
[/warp]
[warp]
23
14
24
14
41
41
0
[/warp]
[warp]
40
13
40
14
41
41
0
[/warp]
