[warp]
339
172
12
16
2
-28
0
[/warp]
[warp]
185
327
35
3
2
-32
0
[/warp]
[warp]
539
412
30
28
28
-49
0
[/warp]
[warp]
350
67
50
17
38
-48
0
[/warp]
[warp]
597
61
33
35
46
-48
0
[/warp]