[warp]
45
33
1
13
6
-4
0
[/warp]
[warp]
45
15
41
16
45
6
0
[/warp]
[warp]
42
23
37
22
45
6
0
[/warp]
[warp]
35
22
33
22
45
6
0
[/warp]
[warp]
24
16
24
15
45
6
0
[/warp]
[warp]
18
26
17
26
45
6
0
[/warp]
[warp]
15
16
17
18
45
6
0
[/warp]
[warp]
14
19
18
21
45
7
0
[/warp]

