info face="Quartz" size=10 bold=0 italic=0 charset="" unicode=1 stretchH=100 smooth=1 aa=1 padding=0,0,0,0 spacing=1,1 outline=0
common lineHeight=10 base=8 scaleW=256 scaleH=256 pages=1 packed=0 alphaChnl=0 redChnl=3 greenChnl=3 blueChnl=3
page id=0 file="dex-mini_0.png"
chars count=191
char id=32   x=65    y=22    width=4     height=10    xoffset=0     yoffset=0     xadvance=4     page=0  chnl=15
char id=33   x=223   y=0     width=5     height=10    xoffset=0     yoffset=0     xadvance=5     page=0  chnl=15
char id=34   x=22    y=0     width=6     height=10    xoffset=0     yoffset=0     xadvance=6     page=0  chnl=15
char id=35   x=29    y=0     width=6     height=10    xoffset=0     yoffset=0     xadvance=6     page=0  chnl=15
char id=36   x=70    y=22    width=4     height=10    xoffset=0     yoffset=0     xadvance=4     page=0  chnl=15
char id=37   x=43    y=0     width=6     height=10    xoffset=0     yoffset=0     xadvance=6     page=0  chnl=15
char id=38   x=50    y=0     width=6     height=10    xoffset=0     yoffset=0     xadvance=6     page=0  chnl=15
char id=39   x=75    y=22    width=4     height=10    xoffset=0     yoffset=0     xadvance=4     page=0  chnl=15
char id=40   x=80    y=22    width=4     height=10    xoffset=0     yoffset=0     xadvance=4     page=0  chnl=15
char id=41   x=95    y=22    width=4     height=10    xoffset=0     yoffset=0     xadvance=4     page=0  chnl=15
char id=42   x=105   y=22    width=4     height=10    xoffset=0     yoffset=0     xadvance=4     page=0  chnl=15
char id=43   x=24    y=11    width=5     height=10    xoffset=0     yoffset=0     xadvance=5     page=0  chnl=15
char id=44   x=20    y=44    width=3     height=10    xoffset=0     yoffset=0     xadvance=3     page=0  chnl=15
char id=45   x=110   y=22    width=4     height=10    xoffset=0     yoffset=0     xadvance=4     page=0  chnl=15
char id=46   x=36    y=11    width=5     height=10    xoffset=0     yoffset=0     xadvance=5     page=0  chnl=15
char id=47   x=71    y=0     width=6     height=10    xoffset=0     yoffset=0     xadvance=6     page=0  chnl=15
char id=48   x=120   y=22    width=4     height=10    xoffset=0     yoffset=0     xadvance=4     page=0  chnl=15
char id=49   x=125   y=22    width=4     height=10    xoffset=0     yoffset=0     xadvance=4     page=0  chnl=15
char id=50   x=135   y=22    width=4     height=10    xoffset=0     yoffset=0     xadvance=4     page=0  chnl=15
char id=51   x=150   y=22    width=4     height=10    xoffset=0     yoffset=0     xadvance=4     page=0  chnl=15
char id=52   x=175   y=22    width=4     height=10    xoffset=0     yoffset=0     xadvance=4     page=0  chnl=15
char id=53   x=185   y=22    width=4     height=10    xoffset=0     yoffset=0     xadvance=4     page=0  chnl=15
char id=54   x=190   y=22    width=4     height=10    xoffset=0     yoffset=0     xadvance=4     page=0  chnl=15
char id=55   x=195   y=22    width=4     height=10    xoffset=0     yoffset=0     xadvance=4     page=0  chnl=15
char id=56   x=200   y=22    width=4     height=10    xoffset=0     yoffset=0     xadvance=4     page=0  chnl=15
char id=57   x=240   y=22    width=4     height=10    xoffset=0     yoffset=0     xadvance=4     page=0  chnl=15
char id=58   x=245   y=22    width=4     height=10    xoffset=0     yoffset=0     xadvance=4     page=0  chnl=15
char id=59   x=193   y=0     width=5     height=10    xoffset=0     yoffset=0     xadvance=5     page=0  chnl=15
char id=60   x=199   y=0     width=5     height=10    xoffset=0     yoffset=0     xadvance=5     page=0  chnl=15
char id=61   x=250   y=22    width=4     height=10    xoffset=0     yoffset=0     xadvance=4     page=0  chnl=15
char id=62   x=235   y=0     width=5     height=10    xoffset=0     yoffset=0     xadvance=5     page=0  chnl=15
char id=63   x=0     y=33    width=4     height=10    xoffset=0     yoffset=0     xadvance=4     page=0  chnl=15
char id=64   x=64    y=0     width=6     height=10    xoffset=0     yoffset=0     xadvance=6     page=0  chnl=15
char id=65   x=5     y=33    width=4     height=10    xoffset=0     yoffset=0     xadvance=4     page=0  chnl=15
char id=66   x=10    y=33    width=4     height=10    xoffset=0     yoffset=0     xadvance=4     page=0  chnl=15
char id=67   x=35    y=33    width=4     height=10    xoffset=0     yoffset=0     xadvance=4     page=0  chnl=15
char id=68   x=40    y=33    width=4     height=10    xoffset=0     yoffset=0     xadvance=4     page=0  chnl=15
char id=69   x=42    y=11    width=5     height=10    xoffset=0     yoffset=0     xadvance=5     page=0  chnl=15
char id=70   x=60    y=11    width=5     height=10    xoffset=0     yoffset=0     xadvance=5     page=0  chnl=15
char id=71   x=75    y=33    width=4     height=10    xoffset=0     yoffset=0     xadvance=4     page=0  chnl=15
char id=72   x=110   y=33    width=4     height=10    xoffset=0     yoffset=0     xadvance=4     page=0  chnl=15
char id=73   x=96    y=11    width=5     height=10    xoffset=0     yoffset=0     xadvance=5     page=0  chnl=15
char id=74   x=145   y=33    width=4     height=10    xoffset=0     yoffset=0     xadvance=4     page=0  chnl=15
char id=75   x=150   y=33    width=4     height=10    xoffset=0     yoffset=0     xadvance=4     page=0  chnl=15
char id=76   x=160   y=33    width=4     height=10    xoffset=0     yoffset=0     xadvance=4     page=0  chnl=15
char id=77   x=187   y=0     width=5     height=10    xoffset=0     yoffset=0     xadvance=5     page=0  chnl=15
char id=78   x=165   y=33    width=4     height=10    xoffset=0     yoffset=0     xadvance=4     page=0  chnl=15
char id=79   x=170   y=33    width=4     height=10    xoffset=0     yoffset=0     xadvance=4     page=0  chnl=15
char id=80   x=195   y=33    width=4     height=10    xoffset=0     yoffset=0     xadvance=4     page=0  chnl=15
char id=81   x=230   y=33    width=4     height=10    xoffset=0     yoffset=0     xadvance=4     page=0  chnl=15
char id=82   x=235   y=33    width=4     height=10    xoffset=0     yoffset=0     xadvance=4     page=0  chnl=15
char id=83   x=150   y=11    width=4     height=10    xoffset=0     yoffset=0     xadvance=4     page=0  chnl=15
char id=84   x=0     y=0     width=7     height=10    xoffset=0     yoffset=0     xadvance=7     page=0  chnl=15
char id=85   x=155   y=11    width=4     height=10    xoffset=0     yoffset=0     xadvance=4     page=0  chnl=15
char id=86   x=160   y=11    width=4     height=10    xoffset=0     yoffset=0     xadvance=4     page=0  chnl=15
char id=87   x=169   y=0     width=5     height=10    xoffset=0     yoffset=0     xadvance=5     page=0  chnl=15
char id=88   x=165   y=11    width=4     height=10    xoffset=0     yoffset=0     xadvance=4     page=0  chnl=15
char id=89   x=181   y=0     width=5     height=10    xoffset=0     yoffset=0     xadvance=5     page=0  chnl=15
char id=90   x=170   y=11    width=4     height=10    xoffset=0     yoffset=0     xadvance=4     page=0  chnl=15
char id=91   x=175   y=11    width=4     height=10    xoffset=0     yoffset=0     xadvance=4     page=0  chnl=15
char id=92   x=8     y=0     width=6     height=10    xoffset=0     yoffset=0     xadvance=6     page=0  chnl=15
char id=93   x=180   y=11    width=4     height=10    xoffset=0     yoffset=0     xadvance=4     page=0  chnl=15
char id=94   x=185   y=11    width=4     height=10    xoffset=0     yoffset=0     xadvance=4     page=0  chnl=15
char id=95   x=15    y=0     width=6     height=10    xoffset=0     yoffset=0     xadvance=6     page=0  chnl=15
char id=96   x=90    y=11    width=5     height=10    xoffset=0     yoffset=0     xadvance=5     page=0  chnl=15
char id=97   x=190   y=11    width=4     height=10    xoffset=0     yoffset=0     xadvance=4     page=0  chnl=15
char id=98   x=195   y=11    width=4     height=10    xoffset=0     yoffset=0     xadvance=4     page=0  chnl=15
char id=99   x=200   y=11    width=4     height=10    xoffset=0     yoffset=0     xadvance=4     page=0  chnl=15
char id=100  x=205   y=11    width=4     height=10    xoffset=0     yoffset=0     xadvance=4     page=0  chnl=15
char id=101  x=241   y=0     width=5     height=10    xoffset=0     yoffset=0     xadvance=5     page=0  chnl=15
char id=102  x=247   y=0     width=5     height=10    xoffset=0     yoffset=0     xadvance=5     page=0  chnl=15
char id=103  x=210   y=11    width=4     height=10    xoffset=0     yoffset=0     xadvance=4     page=0  chnl=15
char id=104  x=55    y=22    width=4     height=10    xoffset=0     yoffset=0     xadvance=4     page=0  chnl=15
char id=105  x=215   y=11    width=4     height=10    xoffset=0     yoffset=0     xadvance=4     page=0  chnl=15
char id=106  x=220   y=11    width=4     height=10    xoffset=0     yoffset=0     xadvance=4     page=0  chnl=15
char id=107  x=225   y=11    width=4     height=10    xoffset=0     yoffset=0     xadvance=4     page=0  chnl=15
char id=108  x=230   y=11    width=4     height=10    xoffset=0     yoffset=0     xadvance=4     page=0  chnl=15
char id=109  x=235   y=11    width=4     height=10    xoffset=0     yoffset=0     xadvance=4     page=0  chnl=15
char id=110  x=240   y=11    width=4     height=10    xoffset=0     yoffset=0     xadvance=4     page=0  chnl=15
char id=111  x=245   y=11    width=4     height=10    xoffset=0     yoffset=0     xadvance=4     page=0  chnl=15
char id=112  x=250   y=11    width=4     height=10    xoffset=0     yoffset=0     xadvance=4     page=0  chnl=15
char id=113  x=0     y=22    width=4     height=10    xoffset=0     yoffset=0     xadvance=4     page=0  chnl=15
char id=114  x=5     y=22    width=4     height=10    xoffset=0     yoffset=0     xadvance=4     page=0  chnl=15
char id=115  x=10    y=22    width=4     height=10    xoffset=0     yoffset=0     xadvance=4     page=0  chnl=15
char id=116  x=78    y=0     width=6     height=10    xoffset=0     yoffset=0     xadvance=6     page=0  chnl=15
char id=117  x=15    y=22    width=4     height=10    xoffset=0     yoffset=0     xadvance=4     page=0  chnl=15
char id=118  x=20    y=22    width=4     height=10    xoffset=0     yoffset=0     xadvance=4     page=0  chnl=15
char id=119  x=25    y=22    width=4     height=10    xoffset=0     yoffset=0     xadvance=4     page=0  chnl=15
char id=120  x=30    y=22    width=4     height=10    xoffset=0     yoffset=0     xadvance=4     page=0  chnl=15
char id=121  x=35    y=22    width=4     height=10    xoffset=0     yoffset=0     xadvance=4     page=0  chnl=15
char id=122  x=40    y=22    width=4     height=10    xoffset=0     yoffset=0     xadvance=4     page=0  chnl=15
char id=123  x=45    y=22    width=4     height=10    xoffset=0     yoffset=0     xadvance=4     page=0  chnl=15
char id=124  x=211   y=0     width=5     height=10    xoffset=0     yoffset=0     xadvance=5     page=0  chnl=15
char id=125  x=50    y=22    width=4     height=10    xoffset=0     yoffset=0     xadvance=4     page=0  chnl=15
char id=126  x=36    y=0     width=6     height=10    xoffset=0     yoffset=0     xadvance=6     page=0  chnl=15
char id=160  x=165   y=22    width=4     height=10    xoffset=0     yoffset=0     xadvance=4     page=0  chnl=15
char id=161  x=30    y=11    width=5     height=10    xoffset=0     yoffset=0     xadvance=5     page=0  chnl=15
char id=162  x=60    y=22    width=4     height=10    xoffset=0     yoffset=0     xadvance=4     page=0  chnl=15
char id=163  x=205   y=0     width=5     height=10    xoffset=0     yoffset=0     xadvance=5     page=0  chnl=15
char id=164  x=85    y=0     width=6     height=10    xoffset=0     yoffset=0     xadvance=6     page=0  chnl=15
char id=165  x=102   y=11    width=5     height=10    xoffset=0     yoffset=0     xadvance=5     page=0  chnl=15
char id=166  x=217   y=0     width=5     height=10    xoffset=0     yoffset=0     xadvance=5     page=0  chnl=15
char id=167  x=85    y=22    width=4     height=10    xoffset=0     yoffset=0     xadvance=4     page=0  chnl=15
char id=168  x=90    y=22    width=4     height=10    xoffset=0     yoffset=0     xadvance=4     page=0  chnl=15
char id=169  x=92    y=0     width=6     height=10    xoffset=0     yoffset=0     xadvance=6     page=0  chnl=15
char id=170  x=100   y=22    width=4     height=10    xoffset=0     yoffset=0     xadvance=4     page=0  chnl=15
char id=171  x=229   y=0     width=5     height=10    xoffset=0     yoffset=0     xadvance=5     page=0  chnl=15
char id=172  x=99    y=0     width=6     height=10    xoffset=0     yoffset=0     xadvance=6     page=0  chnl=15
char id=173  x=115   y=22    width=4     height=10    xoffset=0     yoffset=0     xadvance=4     page=0  chnl=15
char id=174  x=106   y=0     width=6     height=10    xoffset=0     yoffset=0     xadvance=6     page=0  chnl=15
char id=175  x=113   y=0     width=6     height=10    xoffset=0     yoffset=0     xadvance=6     page=0  chnl=15
char id=176  x=130   y=22    width=4     height=10    xoffset=0     yoffset=0     xadvance=4     page=0  chnl=15
char id=177  x=0     y=11    width=5     height=10    xoffset=0     yoffset=0     xadvance=5     page=0  chnl=15
char id=178  x=140   y=22    width=4     height=10    xoffset=0     yoffset=0     xadvance=4     page=0  chnl=15
char id=179  x=145   y=22    width=4     height=10    xoffset=0     yoffset=0     xadvance=4     page=0  chnl=15
char id=180  x=6     y=11    width=5     height=10    xoffset=0     yoffset=0     xadvance=5     page=0  chnl=15
char id=181  x=155   y=22    width=4     height=10    xoffset=0     yoffset=0     xadvance=4     page=0  chnl=15
char id=182  x=160   y=22    width=4     height=10    xoffset=0     yoffset=0     xadvance=4     page=0  chnl=15
char id=183  x=175   y=0     width=5     height=10    xoffset=0     yoffset=0     xadvance=5     page=0  chnl=15
char id=184  x=170   y=22    width=4     height=10    xoffset=0     yoffset=0     xadvance=4     page=0  chnl=15
char id=185  x=12    y=11    width=5     height=10    xoffset=0     yoffset=0     xadvance=5     page=0  chnl=15
char id=186  x=180   y=22    width=4     height=10    xoffset=0     yoffset=0     xadvance=4     page=0  chnl=15
char id=187  x=18    y=11    width=5     height=10    xoffset=0     yoffset=0     xadvance=5     page=0  chnl=15
char id=188  x=120   y=0     width=6     height=10    xoffset=0     yoffset=0     xadvance=6     page=0  chnl=15
char id=189  x=127   y=0     width=6     height=10    xoffset=0     yoffset=0     xadvance=6     page=0  chnl=15
char id=190  x=134   y=0     width=6     height=10    xoffset=0     yoffset=0     xadvance=6     page=0  chnl=15
char id=191  x=205   y=22    width=4     height=10    xoffset=0     yoffset=0     xadvance=4     page=0  chnl=15
char id=192  x=210   y=22    width=4     height=10    xoffset=0     yoffset=0     xadvance=4     page=0  chnl=15
char id=193  x=215   y=22    width=4     height=10    xoffset=0     yoffset=0     xadvance=4     page=0  chnl=15
char id=194  x=220   y=22    width=4     height=10    xoffset=0     yoffset=0     xadvance=4     page=0  chnl=15
char id=195  x=225   y=22    width=4     height=10    xoffset=0     yoffset=0     xadvance=4     page=0  chnl=15
char id=196  x=230   y=22    width=4     height=10    xoffset=0     yoffset=0     xadvance=4     page=0  chnl=15
char id=197  x=235   y=22    width=4     height=10    xoffset=0     yoffset=0     xadvance=4     page=0  chnl=15
char id=198  x=141   y=0     width=6     height=10    xoffset=0     yoffset=0     xadvance=6     page=0  chnl=15
char id=199  x=48    y=11    width=5     height=10    xoffset=0     yoffset=0     xadvance=5     page=0  chnl=15
char id=200  x=54    y=11    width=5     height=10    xoffset=0     yoffset=0     xadvance=5     page=0  chnl=15
char id=201  x=144   y=11    width=5     height=10    xoffset=0     yoffset=0     xadvance=5     page=0  chnl=15
char id=202  x=66    y=11    width=5     height=10    xoffset=0     yoffset=0     xadvance=5     page=0  chnl=15
char id=203  x=72    y=11    width=5     height=10    xoffset=0     yoffset=0     xadvance=5     page=0  chnl=15
char id=204  x=15    y=33    width=4     height=10    xoffset=0     yoffset=0     xadvance=4     page=0  chnl=15
char id=205  x=20    y=33    width=4     height=10    xoffset=0     yoffset=0     xadvance=4     page=0  chnl=15
char id=206  x=25    y=33    width=4     height=10    xoffset=0     yoffset=0     xadvance=4     page=0  chnl=15
char id=207  x=30    y=33    width=4     height=10    xoffset=0     yoffset=0     xadvance=4     page=0  chnl=15
char id=208  x=78    y=11    width=5     height=10    xoffset=0     yoffset=0     xadvance=5     page=0  chnl=15
char id=209  x=155   y=33    width=4     height=10    xoffset=0     yoffset=0     xadvance=4     page=0  chnl=15
char id=210  x=45    y=33    width=4     height=10    xoffset=0     yoffset=0     xadvance=4     page=0  chnl=15
char id=211  x=50    y=33    width=4     height=10    xoffset=0     yoffset=0     xadvance=4     page=0  chnl=15
char id=212  x=55    y=33    width=4     height=10    xoffset=0     yoffset=0     xadvance=4     page=0  chnl=15
char id=213  x=60    y=33    width=4     height=10    xoffset=0     yoffset=0     xadvance=4     page=0  chnl=15
char id=214  x=65    y=33    width=4     height=10    xoffset=0     yoffset=0     xadvance=4     page=0  chnl=15
char id=215  x=70    y=33    width=4     height=10    xoffset=0     yoffset=0     xadvance=4     page=0  chnl=15
char id=216  x=155   y=0     width=6     height=10    xoffset=0     yoffset=0     xadvance=6     page=0  chnl=15
char id=217  x=80    y=33    width=4     height=10    xoffset=0     yoffset=0     xadvance=4     page=0  chnl=15
char id=218  x=85    y=33    width=4     height=10    xoffset=0     yoffset=0     xadvance=4     page=0  chnl=15
char id=219  x=90    y=33    width=4     height=10    xoffset=0     yoffset=0     xadvance=4     page=0  chnl=15
char id=220  x=95    y=33    width=4     height=10    xoffset=0     yoffset=0     xadvance=4     page=0  chnl=15
char id=221  x=100   y=33    width=4     height=10    xoffset=0     yoffset=0     xadvance=4     page=0  chnl=15
char id=222  x=105   y=33    width=4     height=10    xoffset=0     yoffset=0     xadvance=4     page=0  chnl=15
char id=223  x=162   y=0     width=6     height=10    xoffset=0     yoffset=0     xadvance=6     page=0  chnl=15
char id=224  x=115   y=33    width=4     height=10    xoffset=0     yoffset=0     xadvance=4     page=0  chnl=15
char id=225  x=120   y=33    width=4     height=10    xoffset=0     yoffset=0     xadvance=4     page=0  chnl=15
char id=226  x=125   y=33    width=4     height=10    xoffset=0     yoffset=0     xadvance=4     page=0  chnl=15
char id=227  x=130   y=33    width=4     height=10    xoffset=0     yoffset=0     xadvance=4     page=0  chnl=15
char id=228  x=135   y=33    width=4     height=10    xoffset=0     yoffset=0     xadvance=4     page=0  chnl=15
char id=229  x=140   y=33    width=4     height=10    xoffset=0     yoffset=0     xadvance=4     page=0  chnl=15
char id=230  x=148   y=0     width=6     height=10    xoffset=0     yoffset=0     xadvance=6     page=0  chnl=15
char id=231  x=108   y=11    width=5     height=10    xoffset=0     yoffset=0     xadvance=5     page=0  chnl=15
char id=232  x=84    y=11    width=5     height=10    xoffset=0     yoffset=0     xadvance=5     page=0  chnl=15
char id=233  x=114   y=11    width=5     height=10    xoffset=0     yoffset=0     xadvance=5     page=0  chnl=15
char id=234  x=120   y=11    width=5     height=10    xoffset=0     yoffset=0     xadvance=5     page=0  chnl=15
char id=235  x=126   y=11    width=5     height=10    xoffset=0     yoffset=0     xadvance=5     page=0  chnl=15
char id=236  x=175   y=33    width=4     height=10    xoffset=0     yoffset=0     xadvance=4     page=0  chnl=15
char id=237  x=180   y=33    width=4     height=10    xoffset=0     yoffset=0     xadvance=4     page=0  chnl=15
char id=238  x=185   y=33    width=4     height=10    xoffset=0     yoffset=0     xadvance=4     page=0  chnl=15
char id=239  x=190   y=33    width=4     height=10    xoffset=0     yoffset=0     xadvance=4     page=0  chnl=15
char id=240  x=132   y=11    width=5     height=10    xoffset=0     yoffset=0     xadvance=5     page=0  chnl=15
char id=241  x=200   y=33    width=4     height=10    xoffset=0     yoffset=0     xadvance=4     page=0  chnl=15
char id=242  x=205   y=33    width=4     height=10    xoffset=0     yoffset=0     xadvance=4     page=0  chnl=15
char id=243  x=210   y=33    width=4     height=10    xoffset=0     yoffset=0     xadvance=4     page=0  chnl=15
char id=244  x=215   y=33    width=4     height=10    xoffset=0     yoffset=0     xadvance=4     page=0  chnl=15
char id=245  x=220   y=33    width=4     height=10    xoffset=0     yoffset=0     xadvance=4     page=0  chnl=15
char id=246  x=225   y=33    width=4     height=10    xoffset=0     yoffset=0     xadvance=4     page=0  chnl=15
char id=247  x=138   y=11    width=5     height=10    xoffset=0     yoffset=0     xadvance=5     page=0  chnl=15
char id=248  x=57    y=0     width=6     height=10    xoffset=0     yoffset=0     xadvance=6     page=0  chnl=15
char id=249  x=240   y=33    width=4     height=10    xoffset=0     yoffset=0     xadvance=4     page=0  chnl=15
char id=250  x=245   y=33    width=4     height=10    xoffset=0     yoffset=0     xadvance=4     page=0  chnl=15
char id=251  x=250   y=33    width=4     height=10    xoffset=0     yoffset=0     xadvance=4     page=0  chnl=15
char id=252  x=0     y=44    width=4     height=10    xoffset=0     yoffset=0     xadvance=4     page=0  chnl=15
char id=253  x=5     y=44    width=4     height=10    xoffset=0     yoffset=0     xadvance=4     page=0  chnl=15
char id=254  x=10    y=44    width=4     height=10    xoffset=0     yoffset=0     xadvance=4     page=0  chnl=15
char id=255  x=15    y=44    width=4     height=10    xoffset=0     yoffset=0     xadvance=4     page=0  chnl=15
